{\rtf1\ansi\ansicpg1251\deff0\deflang1049{\fonttbl{\f0\fnil\fcharset204 Lucida Console;}{\f1\fnil\fcharset0 Lucida Console;}}
{\colortbl ;\red0\green0\blue255;\red0\green0\blue0;\red255\green140\blue0;}
\viewkind4\uc1\pard\qc\f0\fs20 ----\'ca\'ee\'ec\'e0\'ed\'e4\'fb----\par
\pard ----\'cd\'e5\'ee\'e1\'f5\'ee\'e4\'e8\'ec\'fb\'e5 \'ee\'e1\'ee\'e7\'ed\'e0\'f7\'e5\'ed\'e8\'ff:\par
\cf1\lang1033\f1 [always]\cf2 , \cf1 [alwayso]\cf2 , \cf1 [once]\cf2\par
\cf0\lang1049\f0\par
--\lang1033\f1 -\lang1049\f0 -\'cf\'f0\'e8\'ec\'e5\'f0:\par
\cf1\lang1033\f1 [always]\cf2  \par
\cf3\lang1049\f0\'ca\'ee\'ec\'e0\'ed\'e4\'e0 1\cf2\lang1033\f1\par
\cf1 [alwayso]\cf2  \par
\cf3\lang1049\f0\'ca\'ee\'ec\'e0\'ed\'e4\'e0 2\cf2\lang1033\f1\par
\cf1 [once]\par
\cf3\lang1049\f0\'ca\'ee\'ec\'e0\'ed\'e4\'e0 3\lang1033\f1\par
}
